EESchema Schematic File Version 4
EELAYER 30 0
EELAYER END
$Descr A4 11693 8268
encoding utf-8
Sheet 1 1
Title ""
Date ""
Rev ""
Comp ""
Comment1 ""
Comment2 ""
Comment3 ""
Comment4 ""
$EndDescr
Text Notes 10550 7650 0    50   ~ 0
1
$Comp
L Connector_Generic:Conn_01x02 J2
U 1 1 600B24AE
P 750 5650
F 0 "J2" V 714 5462 50  0000 R CNN
F 1 "Conn_01x02" V 623 5462 50  0000 R CNN
F 2 "Connector_PinHeader_2.54mm:PinHeader_1x02_P2.54mm_Horizontal" H 750 5650 50  0001 C CNN
F 3 "~" H 750 5650 50  0001 C CNN
	1    750  5650
	-1   0    0    1   
$EndComp
$Comp
L power:GND #PWR03
U 1 1 600B36C0
P 950 5650
F 0 "#PWR03" H 950 5400 50  0001 C CNN
F 1 "GND" H 955 5477 50  0000 C CNN
F 2 "" H 950 5650 50  0001 C CNN
F 3 "" H 950 5650 50  0001 C CNN
	1    950  5650
	0    -1   -1   0   
$EndComp
$Comp
L power:+5V #PWR02
U 1 1 600BE4B7
P 950 5300
F 0 "#PWR02" H 950 5150 50  0001 C CNN
F 1 "+5V" H 965 5473 50  0000 C CNN
F 2 "" H 950 5300 50  0001 C CNN
F 3 "" H 950 5300 50  0001 C CNN
	1    950  5300
	1    0    0    -1  
$EndComp
$Comp
L Connector_Generic:Conn_01x02 J4
U 1 1 600CF8BC
P 1150 6500
F 0 "J4" V 1114 6312 50  0000 R CNN
F 1 "Conn_01x02" V 1023 6312 50  0000 R CNN
F 2 "Connector_PinHeader_2.54mm:PinHeader_1x02_P2.54mm_Horizontal" H 1150 6500 50  0001 C CNN
F 3 "~" H 1150 6500 50  0001 C CNN
	1    1150 6500
	0    -1   -1   0   
$EndComp
$Comp
L power:GND #PWR05
U 1 1 600CF8C2
P 1150 6700
F 0 "#PWR05" H 1150 6450 50  0001 C CNN
F 1 "GND" H 1155 6527 50  0000 C CNN
F 2 "" H 1150 6700 50  0001 C CNN
F 3 "" H 1150 6700 50  0001 C CNN
	1    1150 6700
	1    0    0    -1  
$EndComp
$Comp
L power:+5V #PWR08
U 1 1 600CF8C8
P 1500 6700
F 0 "#PWR08" H 1500 6550 50  0001 C CNN
F 1 "+5V" H 1515 6873 50  0000 C CNN
F 2 "" H 1500 6700 50  0001 C CNN
F 3 "" H 1500 6700 50  0001 C CNN
	1    1500 6700
	1    0    0    -1  
$EndComp
$Comp
L Connector_Generic:Conn_01x02 J6
U 1 1 600D11E9
P 2050 6450
F 0 "J6" V 2014 6262 50  0000 R CNN
F 1 "Conn_01x02" V 1923 6262 50  0000 R CNN
F 2 "Connector_PinSocket_2.54mm:PinSocket_1x02_P2.54mm_Horizontal" H 2050 6450 50  0001 C CNN
F 3 "~" H 2050 6450 50  0001 C CNN
	1    2050 6450
	0    -1   -1   0   
$EndComp
$Comp
L power:GND #PWR011
U 1 1 600D11EF
P 2050 6650
F 0 "#PWR011" H 2050 6400 50  0001 C CNN
F 1 "GND" H 2055 6477 50  0000 C CNN
F 2 "" H 2050 6650 50  0001 C CNN
F 3 "" H 2050 6650 50  0001 C CNN
	1    2050 6650
	1    0    0    -1  
$EndComp
$Comp
L power:+5V #PWR012
U 1 1 600D11F5
P 2350 6650
F 0 "#PWR012" H 2350 6500 50  0001 C CNN
F 1 "+5V" H 2365 6823 50  0000 C CNN
F 2 "" H 2350 6650 50  0001 C CNN
F 3 "" H 2350 6650 50  0001 C CNN
	1    2350 6650
	1    0    0    -1  
$EndComp
Wire Wire Line
	950  5550 950  5300
Wire Wire Line
	1250 6700 1500 6700
Wire Wire Line
	2150 6650 2350 6650
$Comp
L Connector_Generic:Conn_01x02 J8
U 1 1 600DBF2F
P 2350 6250
F 0 "J8" V 2314 6062 50  0000 R CNN
F 1 "Conn_01x02" V 2223 6062 50  0000 R CNN
F 2 "Connector_PinHeader_2.54mm:PinHeader_1x02_P2.54mm_Horizontal" H 2350 6250 50  0001 C CNN
F 3 "~" H 2350 6250 50  0001 C CNN
	1    2350 6250
	-1   0    0    1   
$EndComp
$Comp
L power:GND #PWR016
U 1 1 600DBF35
P 2550 6250
F 0 "#PWR016" H 2550 6000 50  0001 C CNN
F 1 "GND" H 2555 6077 50  0000 C CNN
F 2 "" H 2550 6250 50  0001 C CNN
F 3 "" H 2550 6250 50  0001 C CNN
	1    2550 6250
	0    -1   -1   0   
$EndComp
$Comp
L power:+5V #PWR015
U 1 1 600DBF3B
P 2550 5900
F 0 "#PWR015" H 2550 5750 50  0001 C CNN
F 1 "+5V" H 2565 6073 50  0000 C CNN
F 2 "" H 2550 5900 50  0001 C CNN
F 3 "" H 2550 5900 50  0001 C CNN
	1    2550 5900
	0    -1   -1   0   
$EndComp
Wire Wire Line
	2550 6150 2550 5900
$Comp
L Connector_Generic:Conn_01x02 J7
U 1 1 600DC693
P 2100 5350
F 0 "J7" V 2064 5162 50  0000 R CNN
F 1 "Conn_01x02" V 1973 5162 50  0000 R CNN
F 2 "Connector_PinHeader_2.54mm:PinHeader_1x02_P2.54mm_Horizontal" H 2100 5350 50  0001 C CNN
F 3 "~" H 2100 5350 50  0001 C CNN
	1    2100 5350
	-1   0    0    1   
$EndComp
$Comp
L power:+5V #PWR013
U 1 1 600DC69F
P 2300 5000
F 0 "#PWR013" H 2300 4850 50  0001 C CNN
F 1 "+5V" H 2315 5173 50  0000 C CNN
F 2 "" H 2300 5000 50  0001 C CNN
F 3 "" H 2300 5000 50  0001 C CNN
	1    2300 5000
	0    -1   -1   0   
$EndComp
Wire Wire Line
	2300 5250 2300 5000
$Comp
L Connector_Generic:Conn_01x02 J5
U 1 1 600DF898
P 1250 5050
F 0 "J5" V 1214 4862 50  0000 R CNN
F 1 "Conn_01x02" V 1123 4862 50  0000 R CNN
F 2 "Connector_PinSocket_2.54mm:PinSocket_1x02_P2.54mm_Horizontal" H 1250 5050 50  0001 C CNN
F 3 "~" H 1250 5050 50  0001 C CNN
	1    1250 5050
	0    -1   -1   0   
$EndComp
$Comp
L power:GND #PWR07
U 1 1 600DF89E
P 1250 5250
F 0 "#PWR07" H 1250 5000 50  0001 C CNN
F 1 "GND" H 1255 5077 50  0000 C CNN
F 2 "" H 1250 5250 50  0001 C CNN
F 3 "" H 1250 5250 50  0001 C CNN
	1    1250 5250
	1    0    0    -1  
$EndComp
$Comp
L power:+5V #PWR09
U 1 1 600DF8A4
P 1550 5250
F 0 "#PWR09" H 1550 5100 50  0001 C CNN
F 1 "+5V" H 1565 5423 50  0000 C CNN
F 2 "" H 1550 5250 50  0001 C CNN
F 3 "" H 1550 5250 50  0001 C CNN
	1    1550 5250
	1    0    0    -1  
$EndComp
Wire Wire Line
	1350 5250 1550 5250
$Comp
L Connector_Generic:Conn_01x02 J3
U 1 1 600E0122
P 800 6000
F 0 "J3" V 764 5812 50  0000 R CNN
F 1 "Conn_01x02" V 673 5812 50  0000 R CNN
F 2 "Connector_PinSocket_2.54mm:PinSocket_1x02_P2.54mm_Horizontal" H 800 6000 50  0001 C CNN
F 3 "~" H 800 6000 50  0001 C CNN
	1    800  6000
	0    -1   -1   0   
$EndComp
$Comp
L power:GND #PWR01
U 1 1 600E0128
P 800 6200
F 0 "#PWR01" H 800 5950 50  0001 C CNN
F 1 "GND" H 805 6027 50  0000 C CNN
F 2 "" H 800 6200 50  0001 C CNN
F 3 "" H 800 6200 50  0001 C CNN
	1    800  6200
	1    0    0    -1  
$EndComp
$Comp
L power:+5V #PWR04
U 1 1 600E012E
P 1100 6200
F 0 "#PWR04" H 1100 6050 50  0001 C CNN
F 1 "+5V" H 1115 6373 50  0000 C CNN
F 2 "" H 1100 6200 50  0001 C CNN
F 3 "" H 1100 6200 50  0001 C CNN
	1    1100 6200
	1    0    0    -1  
$EndComp
Wire Wire Line
	900  6200 1100 6200
$Comp
L Mechanical:MountingHole_Pad H1
U 1 1 601E2B02
P 800 7100
F 0 "H1" H 900 7149 50  0000 L CNN
F 1 "MountingHole_Pad" H 900 7058 50  0000 L CNN
F 2 "MountingHole:MountingHole_2.2mm_M2_Pad_TopBottom" H 800 7100 50  0001 C CNN
F 3 "~" H 800 7100 50  0001 C CNN
	1    800  7100
	1    0    0    -1  
$EndComp
$Comp
L power:GND #PWR019
U 1 1 601E7108
P 800 7200
F 0 "#PWR019" H 800 6950 50  0001 C CNN
F 1 "GND" H 805 7027 50  0000 C CNN
F 2 "" H 800 7200 50  0001 C CNN
F 3 "" H 800 7200 50  0001 C CNN
	1    800  7200
	1    0    0    -1  
$EndComp
$Comp
L Mechanical:MountingHole_Pad H2
U 1 1 601EEE6B
P 1250 7150
F 0 "H2" H 1350 7199 50  0000 L CNN
F 1 "MountingHole_Pad" H 1350 7108 50  0000 L CNN
F 2 "MountingHole:MountingHole_2.2mm_M2_Pad_TopBottom" H 1250 7150 50  0001 C CNN
F 3 "~" H 1250 7150 50  0001 C CNN
	1    1250 7150
	1    0    0    -1  
$EndComp
$Comp
L power:GND #PWR020
U 1 1 601EEE71
P 1250 7250
F 0 "#PWR020" H 1250 7000 50  0001 C CNN
F 1 "GND" H 1255 7077 50  0000 C CNN
F 2 "" H 1250 7250 50  0001 C CNN
F 3 "" H 1250 7250 50  0001 C CNN
	1    1250 7250
	1    0    0    -1  
$EndComp
$Comp
L Mechanical:MountingHole_Pad H3
U 1 1 601EF433
P 1550 7200
F 0 "H3" H 1650 7249 50  0000 L CNN
F 1 "MountingHole_Pad" H 1650 7158 50  0000 L CNN
F 2 "MountingHole:MountingHole_2.2mm_M2_Pad_TopBottom" H 1550 7200 50  0001 C CNN
F 3 "~" H 1550 7200 50  0001 C CNN
	1    1550 7200
	1    0    0    -1  
$EndComp
$Comp
L power:GND #PWR021
U 1 1 601EF439
P 1550 7300
F 0 "#PWR021" H 1550 7050 50  0001 C CNN
F 1 "GND" H 1555 7127 50  0000 C CNN
F 2 "" H 1550 7300 50  0001 C CNN
F 3 "" H 1550 7300 50  0001 C CNN
	1    1550 7300
	1    0    0    -1  
$EndComp
$Comp
L Mechanical:MountingHole_Pad H4
U 1 1 601EF983
P 2000 7200
F 0 "H4" H 2100 7249 50  0000 L CNN
F 1 "MountingHole_Pad" H 2100 7158 50  0000 L CNN
F 2 "MountingHole:MountingHole_2.2mm_M2_Pad_TopBottom" H 2000 7200 50  0001 C CNN
F 3 "~" H 2000 7200 50  0001 C CNN
	1    2000 7200
	1    0    0    -1  
$EndComp
$Comp
L power:GND #PWR022
U 1 1 601EF989
P 2000 7300
F 0 "#PWR022" H 2000 7050 50  0001 C CNN
F 1 "GND" H 2005 7127 50  0000 C CNN
F 2 "" H 2000 7300 50  0001 C CNN
F 3 "" H 2000 7300 50  0001 C CNN
	1    2000 7300
	1    0    0    -1  
$EndComp
$Comp
L Connector_Generic:Conn_02x02_Top_Bottom J1
U 1 1 600B315D
P 1600 5750
F 0 "J1" H 1650 5967 50  0000 C CNN
F 1 "Conn_02x02_Top_Bottom" H 1650 5876 50  0000 C CNN
F 2 "Connector_PinHeader_2.54mm:PinHeader_2x02_P2.54mm_Vertical" H 1600 5750 50  0001 C CNN
F 3 "~" H 1600 5750 50  0001 C CNN
	1    1600 5750
	1    0    0    -1  
$EndComp
$Comp
L power:+5V #PWR010
U 1 1 600BF4D8
P 2100 5700
F 0 "#PWR010" H 2100 5550 50  0001 C CNN
F 1 "+5V" H 2115 5873 50  0000 C CNN
F 2 "" H 2100 5700 50  0001 C CNN
F 3 "" H 2100 5700 50  0001 C CNN
	1    2100 5700
	1    0    0    -1  
$EndComp
Wire Wire Line
	1200 5850 1400 5850
Wire Wire Line
	1400 5850 1400 5750
Connection ~ 1400 5850
Wire Wire Line
	1900 5750 1900 5850
Wire Wire Line
	1900 5750 2100 5750
Wire Wire Line
	2100 5750 2100 5700
Connection ~ 1900 5750
$Comp
L power:GND #PWR06
U 1 1 600BEF06
P 1200 5850
F 0 "#PWR06" H 1200 5600 50  0001 C CNN
F 1 "GND" H 1205 5677 50  0000 C CNN
F 2 "" H 1200 5850 50  0001 C CNN
F 3 "" H 1200 5850 50  0001 C CNN
	1    1200 5850
	1    0    0    -1  
$EndComp
$Comp
L power:GND #PWR014
U 1 1 600DC699
P 2300 5350
F 0 "#PWR014" H 2300 5100 50  0001 C CNN
F 1 "GND" H 2305 5177 50  0000 C CNN
F 2 "" H 2300 5350 50  0001 C CNN
F 3 "" H 2300 5350 50  0001 C CNN
	1    2300 5350
	0    -1   -1   0   
$EndComp
Wire Wire Line
	2850 5750 3050 5750
$Comp
L power:+5V #PWR018
U 1 1 600BEB4D
P 3050 5750
F 0 "#PWR018" H 3050 5600 50  0001 C CNN
F 1 "+5V" H 3065 5923 50  0000 C CNN
F 2 "" H 3050 5750 50  0001 C CNN
F 3 "" H 3050 5750 50  0001 C CNN
	1    3050 5750
	1    0    0    -1  
$EndComp
$Comp
L power:GND #PWR017
U 1 1 600BDEB6
P 2750 5750
F 0 "#PWR017" H 2750 5500 50  0001 C CNN
F 1 "GND" H 2755 5577 50  0000 C CNN
F 2 "" H 2750 5750 50  0001 C CNN
F 3 "" H 2750 5750 50  0001 C CNN
	1    2750 5750
	1    0    0    -1  
$EndComp
$Comp
L Connector_Generic:Conn_01x02 J9
U 1 1 600B28B8
P 2750 5550
F 0 "J9" V 2714 5362 50  0000 R CNN
F 1 "Conn_01x02" V 2623 5362 50  0000 R CNN
F 2 "Connector_PinSocket_2.54mm:PinSocket_1x02_P2.54mm_Horizontal" H 2750 5550 50  0001 C CNN
F 3 "~" H 2750 5550 50  0001 C CNN
	1    2750 5550
	0    -1   -1   0   
$EndComp
$Comp
L 74xx:74HC00 U1
U 1 1 60239E5C
P 1900 1150
F 0 "U1" H 1900 1475 50  0000 C CNN
F 1 "74HC00" H 1900 1384 50  0000 C CNN
F 2 "" H 1900 1150 50  0001 C CNN
F 3 "http://www.ti.com/lit/gpn/sn74hc00" H 1900 1150 50  0001 C CNN
	1    1900 1150
	1    0    0    -1  
$EndComp
$Comp
L 74xx:74HC00 U1
U 2 1 6023AAB9
P 3950 1200
F 0 "U1" H 3950 1525 50  0000 C CNN
F 1 "74HC00" H 3950 1434 50  0000 C CNN
F 2 "" H 3950 1200 50  0001 C CNN
F 3 "http://www.ti.com/lit/gpn/sn74hc00" H 3950 1200 50  0001 C CNN
	2    3950 1200
	1    0    0    -1  
$EndComp
$Comp
L 74xx:74HC00 U1
U 3 1 6023B9BF
P 6000 1200
F 0 "U1" H 6000 1525 50  0000 C CNN
F 1 "74HC00" H 6000 1434 50  0000 C CNN
F 2 "" H 6000 1200 50  0001 C CNN
F 3 "http://www.ti.com/lit/gpn/sn74hc00" H 6000 1200 50  0001 C CNN
	3    6000 1200
	1    0    0    -1  
$EndComp
$Comp
L 74xx:74HC00 U1
U 5 1 6023DD21
P 1300 4200
F 0 "U1" H 1530 4246 50  0000 L CNN
F 1 "74HC00" H 1530 4155 50  0000 L CNN
F 2 "Package_DIP:DIP-14_W7.62mm_Socket" H 1300 4200 50  0001 C CNN
F 3 "http://www.ti.com/lit/gpn/sn74hc00" H 1300 4200 50  0001 C CNN
	5    1300 4200
	1    0    0    -1  
$EndComp
$Comp
L 74xx:74HC00 U1
U 4 1 6023CB79
P 8050 1200
F 0 "U1" H 8050 1525 50  0000 C CNN
F 1 "74HC00" H 8050 1434 50  0000 C CNN
F 2 "" H 8050 1200 50  0001 C CNN
F 3 "http://www.ti.com/lit/gpn/sn74hc00" H 8050 1200 50  0001 C CNN
	4    8050 1200
	1    0    0    -1  
$EndComp
$Comp
L Connector_Generic:Conn_02x02_Top_Bottom J10
U 1 1 60295653
P 1350 1100
F 0 "J10" H 1400 1317 50  0000 C CNN
F 1 "Conn_02x02_Top_Bottom" H 1400 1226 50  0000 C CNN
F 2 "Connector_PinHeader_2.54mm:PinHeader_2x02_P2.54mm_Vertical" H 1350 1100 50  0001 C CNN
F 3 "~" H 1350 1100 50  0001 C CNN
	1    1350 1100
	0    1    1    0   
$EndComp
$Comp
L Connector_Generic:Conn_02x02_Top_Bottom J11
U 1 1 602B3199
P 2450 1100
F 0 "J11" H 2500 1317 50  0000 C CNN
F 1 "Conn_02x02_Top_Bottom" H 2500 1226 50  0000 C CNN
F 2 "Connector_PinHeader_2.54mm:PinHeader_2x02_P2.54mm_Vertical" H 2450 1100 50  0001 C CNN
F 3 "~" H 2450 1100 50  0001 C CNN
	1    2450 1100
	0    1    1    0   
$EndComp
$Comp
L power:GND #PWR0101
U 1 1 602BD7AF
P 1300 4700
F 0 "#PWR0101" H 1300 4450 50  0001 C CNN
F 1 "GND" H 1305 4527 50  0000 C CNN
F 2 "" H 1300 4700 50  0001 C CNN
F 3 "" H 1300 4700 50  0001 C CNN
	1    1300 4700
	1    0    0    -1  
$EndComp
$Comp
L power:+5V #PWR0102
U 1 1 602BE480
P 1300 3700
F 0 "#PWR0102" H 1300 3550 50  0001 C CNN
F 1 "+5V" H 1315 3873 50  0000 C CNN
F 2 "" H 1300 3700 50  0001 C CNN
F 3 "" H 1300 3700 50  0001 C CNN
	1    1300 3700
	1    0    0    -1  
$EndComp
$Comp
L Device:R R1
U 1 1 602ECE06
P 800 1050
F 0 "R1" H 870 1096 50  0000 L CNN
F 1 "R" H 870 1005 50  0000 L CNN
F 2 "Resistor_SMD:R_0603_1608Metric" V 730 1050 50  0001 C CNN
F 3 "~" H 800 1050 50  0001 C CNN
	1    800  1050
	1    0    0    -1  
$EndComp
$Comp
L Device:LED D1
U 1 1 602ECE0C
P 800 1550
F 0 "D1" V 839 1432 50  0000 R CNN
F 1 "LED" V 748 1432 50  0000 R CNN
F 2 "LED_SMD:LED_0603_1608Metric" H 800 1550 50  0001 C CNN
F 3 "~" H 800 1550 50  0001 C CNN
	1    800  1550
	0    -1   -1   0   
$EndComp
$Comp
L Device:R R2
U 1 1 602ED893
P 1150 1550
F 0 "R2" H 1220 1596 50  0000 L CNN
F 1 "R" H 1220 1505 50  0000 L CNN
F 2 "Resistor_SMD:R_0603_1608Metric" V 1080 1550 50  0001 C CNN
F 3 "~" H 1150 1550 50  0001 C CNN
	1    1150 1550
	1    0    0    -1  
$EndComp
$Comp
L Device:LED D2
U 1 1 602ED899
P 1150 2000
F 0 "D2" H 1143 2217 50  0000 C CNN
F 1 "LED" H 1143 2126 50  0000 C CNN
F 2 "LED_SMD:LED_0603_1608Metric" H 1150 2000 50  0001 C CNN
F 3 "~" H 1150 2000 50  0001 C CNN
	1    1150 2000
	0    -1   -1   0   
$EndComp
$Comp
L Device:R R3
U 1 1 602EE360
P 2100 1550
F 0 "R3" H 2170 1596 50  0000 L CNN
F 1 "R" H 2170 1505 50  0000 L CNN
F 2 "Resistor_SMD:R_0603_1608Metric" V 2030 1550 50  0001 C CNN
F 3 "~" H 2100 1550 50  0001 C CNN
	1    2100 1550
	1    0    0    -1  
$EndComp
$Comp
L Device:LED D3
U 1 1 602EE366
P 2100 2050
F 0 "D3" H 2093 2267 50  0000 C CNN
F 1 "LED" H 2093 2176 50  0000 C CNN
F 2 "LED_SMD:LED_0603_1608Metric" H 2100 2050 50  0001 C CNN
F 3 "~" H 2100 2050 50  0001 C CNN
	1    2100 2050
	0    -1   -1   0   
$EndComp
Wire Wire Line
	1250 900  1350 900 
Wire Wire Line
	1350 900  1600 900 
Wire Wire Line
	1600 900  1600 1050
Connection ~ 1350 900 
Wire Wire Line
	1250 1400 1350 1400
Wire Wire Line
	1350 1400 1600 1400
Wire Wire Line
	1600 1400 1600 1250
Connection ~ 1350 1400
Wire Wire Line
	2450 900  2350 900 
Wire Wire Line
	2350 900  2200 900 
Wire Wire Line
	2200 900  2200 1150
Connection ~ 2350 900 
Wire Wire Line
	2450 1400 2350 1400
Wire Wire Line
	2350 1400 2200 1400
Wire Wire Line
	2200 1400 2200 1150
Connection ~ 2350 1400
Connection ~ 2200 1150
$Comp
L power:GND #PWR0103
U 1 1 6034A319
P 800 1700
F 0 "#PWR0103" H 800 1450 50  0001 C CNN
F 1 "GND" H 805 1527 50  0000 C CNN
F 2 "" H 800 1700 50  0001 C CNN
F 3 "" H 800 1700 50  0001 C CNN
	1    800  1700
	1    0    0    -1  
$EndComp
$Comp
L power:GND #PWR0104
U 1 1 6034B029
P 1150 2150
F 0 "#PWR0104" H 1150 1900 50  0001 C CNN
F 1 "GND" H 1155 1977 50  0000 C CNN
F 2 "" H 1150 2150 50  0001 C CNN
F 3 "" H 1150 2150 50  0001 C CNN
	1    1150 2150
	1    0    0    -1  
$EndComp
Wire Wire Line
	1250 900  800  900 
Connection ~ 1250 900 
Wire Wire Line
	1250 1400 1150 1400
Connection ~ 1250 1400
Wire Wire Line
	1150 1700 1150 1850
Wire Wire Line
	800  1200 800  1400
$Comp
L power:GND #PWR0105
U 1 1 6035CC61
P 2100 2200
F 0 "#PWR0105" H 2100 1950 50  0001 C CNN
F 1 "GND" H 2105 2027 50  0000 C CNN
F 2 "" H 2100 2200 50  0001 C CNN
F 3 "" H 2100 2200 50  0001 C CNN
	1    2100 2200
	1    0    0    -1  
$EndComp
Wire Wire Line
	2200 1400 2100 1400
Connection ~ 2200 1400
Wire Wire Line
	2100 1700 2100 1900
$Comp
L Connector_Generic:Conn_02x02_Top_Bottom J12
U 1 1 6039C489
P 3400 1150
F 0 "J12" H 3450 1367 50  0000 C CNN
F 1 "Conn_02x02_Top_Bottom" H 3450 1276 50  0000 C CNN
F 2 "Connector_PinHeader_2.54mm:PinHeader_2x02_P2.54mm_Vertical" H 3400 1150 50  0001 C CNN
F 3 "~" H 3400 1150 50  0001 C CNN
	1    3400 1150
	0    1    1    0   
$EndComp
$Comp
L Connector_Generic:Conn_02x02_Top_Bottom J13
U 1 1 6039C48F
P 4500 1150
F 0 "J13" H 4550 1367 50  0000 C CNN
F 1 "Conn_02x02_Top_Bottom" H 4550 1276 50  0000 C CNN
F 2 "Connector_PinHeader_2.54mm:PinHeader_2x02_P2.54mm_Vertical" H 4500 1150 50  0001 C CNN
F 3 "~" H 4500 1150 50  0001 C CNN
	1    4500 1150
	0    1    1    0   
$EndComp
$Comp
L Device:R R4
U 1 1 6039C495
P 2850 1100
F 0 "R4" H 2920 1146 50  0000 L CNN
F 1 "R" H 2920 1055 50  0000 L CNN
F 2 "Resistor_SMD:R_0603_1608Metric" V 2780 1100 50  0001 C CNN
F 3 "~" H 2850 1100 50  0001 C CNN
	1    2850 1100
	1    0    0    -1  
$EndComp
$Comp
L Device:LED D4
U 1 1 6039C49B
P 2850 1600
F 0 "D4" V 2889 1482 50  0000 R CNN
F 1 "LED" V 2798 1482 50  0000 R CNN
F 2 "LED_SMD:LED_0603_1608Metric" H 2850 1600 50  0001 C CNN
F 3 "~" H 2850 1600 50  0001 C CNN
	1    2850 1600
	0    -1   -1   0   
$EndComp
$Comp
L Device:R R5
U 1 1 6039C4A1
P 3200 1600
F 0 "R5" H 3270 1646 50  0000 L CNN
F 1 "R" H 3270 1555 50  0000 L CNN
F 2 "Resistor_SMD:R_0603_1608Metric" V 3130 1600 50  0001 C CNN
F 3 "~" H 3200 1600 50  0001 C CNN
	1    3200 1600
	1    0    0    -1  
$EndComp
$Comp
L Device:LED D5
U 1 1 6039C4A7
P 3200 2050
F 0 "D5" H 3193 2267 50  0000 C CNN
F 1 "LED" H 3193 2176 50  0000 C CNN
F 2 "LED_SMD:LED_0603_1608Metric" H 3200 2050 50  0001 C CNN
F 3 "~" H 3200 2050 50  0001 C CNN
	1    3200 2050
	0    -1   -1   0   
$EndComp
$Comp
L Device:R R6
U 1 1 6039C4AD
P 4150 1600
F 0 "R6" H 4220 1646 50  0000 L CNN
F 1 "R" H 4220 1555 50  0000 L CNN
F 2 "Resistor_SMD:R_0603_1608Metric" V 4080 1600 50  0001 C CNN
F 3 "~" H 4150 1600 50  0001 C CNN
	1    4150 1600
	1    0    0    -1  
$EndComp
$Comp
L Device:LED D6
U 1 1 6039C4B3
P 4150 2100
F 0 "D6" H 4143 2317 50  0000 C CNN
F 1 "LED" H 4143 2226 50  0000 C CNN
F 2 "LED_SMD:LED_0603_1608Metric" H 4150 2100 50  0001 C CNN
F 3 "~" H 4150 2100 50  0001 C CNN
	1    4150 2100
	0    -1   -1   0   
$EndComp
Wire Wire Line
	3300 950  3400 950 
Wire Wire Line
	3400 950  3650 950 
Wire Wire Line
	3650 950  3650 1100
Connection ~ 3400 950 
Wire Wire Line
	3300 1450 3400 1450
Wire Wire Line
	3400 1450 3650 1450
Wire Wire Line
	3650 1450 3650 1300
Connection ~ 3400 1450
Wire Wire Line
	4500 950  4400 950 
Wire Wire Line
	4400 950  4250 950 
Connection ~ 4400 950 
Wire Wire Line
	4500 1450 4400 1450
Wire Wire Line
	4400 1450 4250 1450
Connection ~ 4400 1450
$Comp
L power:GND #PWR0106
U 1 1 6039C4CA
P 2850 1750
F 0 "#PWR0106" H 2850 1500 50  0001 C CNN
F 1 "GND" H 2855 1577 50  0000 C CNN
F 2 "" H 2850 1750 50  0001 C CNN
F 3 "" H 2850 1750 50  0001 C CNN
	1    2850 1750
	1    0    0    -1  
$EndComp
$Comp
L power:GND #PWR0107
U 1 1 6039C4D0
P 3200 2200
F 0 "#PWR0107" H 3200 1950 50  0001 C CNN
F 1 "GND" H 3205 2027 50  0000 C CNN
F 2 "" H 3200 2200 50  0001 C CNN
F 3 "" H 3200 2200 50  0001 C CNN
	1    3200 2200
	1    0    0    -1  
$EndComp
Wire Wire Line
	3300 950  2850 950 
Connection ~ 3300 950 
Wire Wire Line
	3300 1450 3200 1450
Connection ~ 3300 1450
Wire Wire Line
	3200 1750 3200 1900
Wire Wire Line
	2850 1250 2850 1450
$Comp
L power:GND #PWR0108
U 1 1 6039C4DC
P 4150 2250
F 0 "#PWR0108" H 4150 2000 50  0001 C CNN
F 1 "GND" H 4155 2077 50  0000 C CNN
F 2 "" H 4150 2250 50  0001 C CNN
F 3 "" H 4150 2250 50  0001 C CNN
	1    4150 2250
	1    0    0    -1  
$EndComp
Wire Wire Line
	4250 1450 4150 1450
Connection ~ 4250 1450
Wire Wire Line
	4150 1750 4150 1950
Wire Wire Line
	4250 950  4250 1200
Connection ~ 4250 1200
Wire Wire Line
	4250 1200 4250 1450
$Comp
L Connector_Generic:Conn_02x02_Top_Bottom J14
U 1 1 603B1CC9
P 5450 1150
F 0 "J14" H 5500 1367 50  0000 C CNN
F 1 "Conn_02x02_Top_Bottom" H 5500 1276 50  0000 C CNN
F 2 "Connector_PinHeader_2.54mm:PinHeader_2x02_P2.54mm_Vertical" H 5450 1150 50  0001 C CNN
F 3 "~" H 5450 1150 50  0001 C CNN
	1    5450 1150
	0    1    1    0   
$EndComp
$Comp
L Connector_Generic:Conn_02x02_Top_Bottom J15
U 1 1 603B1CCF
P 6550 1150
F 0 "J15" H 6600 1367 50  0000 C CNN
F 1 "Conn_02x02_Top_Bottom" H 6600 1276 50  0000 C CNN
F 2 "Connector_PinHeader_2.54mm:PinHeader_2x02_P2.54mm_Vertical" H 6550 1150 50  0001 C CNN
F 3 "~" H 6550 1150 50  0001 C CNN
	1    6550 1150
	0    1    1    0   
$EndComp
$Comp
L Device:R R7
U 1 1 603B1CD5
P 4900 1100
F 0 "R7" H 4970 1146 50  0000 L CNN
F 1 "R" H 4970 1055 50  0000 L CNN
F 2 "Resistor_SMD:R_0603_1608Metric" V 4830 1100 50  0001 C CNN
F 3 "~" H 4900 1100 50  0001 C CNN
	1    4900 1100
	1    0    0    -1  
$EndComp
$Comp
L Device:LED D7
U 1 1 603B1CDB
P 4900 1600
F 0 "D7" V 4939 1482 50  0000 R CNN
F 1 "LED" V 4848 1482 50  0000 R CNN
F 2 "LED_SMD:LED_0603_1608Metric" H 4900 1600 50  0001 C CNN
F 3 "~" H 4900 1600 50  0001 C CNN
	1    4900 1600
	0    -1   -1   0   
$EndComp
$Comp
L Device:R R8
U 1 1 603B1CE1
P 5250 1600
F 0 "R8" H 5320 1646 50  0000 L CNN
F 1 "R" H 5320 1555 50  0000 L CNN
F 2 "Resistor_SMD:R_0603_1608Metric" V 5180 1600 50  0001 C CNN
F 3 "~" H 5250 1600 50  0001 C CNN
	1    5250 1600
	1    0    0    -1  
$EndComp
$Comp
L Device:LED D8
U 1 1 603B1CE7
P 5250 2050
F 0 "D8" H 5243 2267 50  0000 C CNN
F 1 "LED" H 5243 2176 50  0000 C CNN
F 2 "LED_SMD:LED_0603_1608Metric" H 5250 2050 50  0001 C CNN
F 3 "~" H 5250 2050 50  0001 C CNN
	1    5250 2050
	0    -1   -1   0   
$EndComp
$Comp
L Device:R R9
U 1 1 603B1CED
P 6200 1600
F 0 "R9" H 6270 1646 50  0000 L CNN
F 1 "R" H 6270 1555 50  0000 L CNN
F 2 "Resistor_SMD:R_0603_1608Metric" V 6130 1600 50  0001 C CNN
F 3 "~" H 6200 1600 50  0001 C CNN
	1    6200 1600
	1    0    0    -1  
$EndComp
$Comp
L Device:LED D9
U 1 1 603B1CF3
P 6200 2100
F 0 "D9" H 6193 2317 50  0000 C CNN
F 1 "LED" H 6193 2226 50  0000 C CNN
F 2 "LED_SMD:LED_0603_1608Metric" H 6200 2100 50  0001 C CNN
F 3 "~" H 6200 2100 50  0001 C CNN
	1    6200 2100
	0    -1   -1   0   
$EndComp
Wire Wire Line
	5350 950  5450 950 
Wire Wire Line
	5450 950  5700 950 
Wire Wire Line
	5700 950  5700 1100
Connection ~ 5450 950 
Wire Wire Line
	5350 1450 5450 1450
Wire Wire Line
	5450 1450 5700 1450
Wire Wire Line
	5700 1450 5700 1300
Connection ~ 5450 1450
Wire Wire Line
	6550 950  6450 950 
Wire Wire Line
	6450 950  6300 950 
Connection ~ 6450 950 
Wire Wire Line
	6550 1450 6450 1450
Wire Wire Line
	6450 1450 6300 1450
Connection ~ 6450 1450
$Comp
L power:GND #PWR0109
U 1 1 603B1D0A
P 4900 1750
F 0 "#PWR0109" H 4900 1500 50  0001 C CNN
F 1 "GND" H 4905 1577 50  0000 C CNN
F 2 "" H 4900 1750 50  0001 C CNN
F 3 "" H 4900 1750 50  0001 C CNN
	1    4900 1750
	1    0    0    -1  
$EndComp
$Comp
L power:GND #PWR0110
U 1 1 603B1D10
P 5250 2200
F 0 "#PWR0110" H 5250 1950 50  0001 C CNN
F 1 "GND" H 5255 2027 50  0000 C CNN
F 2 "" H 5250 2200 50  0001 C CNN
F 3 "" H 5250 2200 50  0001 C CNN
	1    5250 2200
	1    0    0    -1  
$EndComp
Wire Wire Line
	5350 950  4900 950 
Connection ~ 5350 950 
Wire Wire Line
	5350 1450 5250 1450
Connection ~ 5350 1450
Wire Wire Line
	5250 1750 5250 1900
Wire Wire Line
	4900 1250 4900 1450
$Comp
L power:GND #PWR0111
U 1 1 603B1D1C
P 6200 2250
F 0 "#PWR0111" H 6200 2000 50  0001 C CNN
F 1 "GND" H 6205 2077 50  0000 C CNN
F 2 "" H 6200 2250 50  0001 C CNN
F 3 "" H 6200 2250 50  0001 C CNN
	1    6200 2250
	1    0    0    -1  
$EndComp
Wire Wire Line
	6300 1450 6200 1450
Connection ~ 6300 1450
Wire Wire Line
	6200 1750 6200 1950
$Comp
L Connector_Generic:Conn_02x02_Top_Bottom J16
U 1 1 603B529D
P 7500 1150
F 0 "J16" H 7550 1367 50  0000 C CNN
F 1 "Conn_02x02_Top_Bottom" H 7550 1276 50  0000 C CNN
F 2 "Connector_PinHeader_2.54mm:PinHeader_2x02_P2.54mm_Vertical" H 7500 1150 50  0001 C CNN
F 3 "~" H 7500 1150 50  0001 C CNN
	1    7500 1150
	0    1    1    0   
$EndComp
$Comp
L Connector_Generic:Conn_02x02_Top_Bottom J17
U 1 1 603B52A3
P 8600 1150
F 0 "J17" H 8650 1367 50  0000 C CNN
F 1 "Conn_02x02_Top_Bottom" H 8650 1276 50  0000 C CNN
F 2 "Connector_PinHeader_2.54mm:PinHeader_2x02_P2.54mm_Vertical" H 8600 1150 50  0001 C CNN
F 3 "~" H 8600 1150 50  0001 C CNN
	1    8600 1150
	0    1    1    0   
$EndComp
$Comp
L Device:R R10
U 1 1 603B52A9
P 6950 1100
F 0 "R10" H 7020 1146 50  0000 L CNN
F 1 "R" H 7020 1055 50  0000 L CNN
F 2 "Resistor_SMD:R_0603_1608Metric" V 6880 1100 50  0001 C CNN
F 3 "~" H 6950 1100 50  0001 C CNN
	1    6950 1100
	1    0    0    -1  
$EndComp
$Comp
L Device:LED D10
U 1 1 603B52AF
P 6950 1600
F 0 "D10" V 6989 1482 50  0000 R CNN
F 1 "LED" V 6898 1482 50  0000 R CNN
F 2 "LED_SMD:LED_0603_1608Metric" H 6950 1600 50  0001 C CNN
F 3 "~" H 6950 1600 50  0001 C CNN
	1    6950 1600
	0    -1   -1   0   
$EndComp
$Comp
L Device:R R11
U 1 1 603B52B5
P 7300 1600
F 0 "R11" H 7370 1646 50  0000 L CNN
F 1 "R" H 7370 1555 50  0000 L CNN
F 2 "Resistor_SMD:R_0603_1608Metric" V 7230 1600 50  0001 C CNN
F 3 "~" H 7300 1600 50  0001 C CNN
	1    7300 1600
	1    0    0    -1  
$EndComp
$Comp
L Device:LED D11
U 1 1 603B52BB
P 7300 2050
F 0 "D11" H 7293 2267 50  0000 C CNN
F 1 "LED" H 7293 2176 50  0000 C CNN
F 2 "LED_SMD:LED_0603_1608Metric" H 7300 2050 50  0001 C CNN
F 3 "~" H 7300 2050 50  0001 C CNN
	1    7300 2050
	0    -1   -1   0   
$EndComp
$Comp
L Device:R R12
U 1 1 603B52C1
P 8250 1600
F 0 "R12" H 8320 1646 50  0000 L CNN
F 1 "R" H 8320 1555 50  0000 L CNN
F 2 "Resistor_SMD:R_0603_1608Metric" V 8180 1600 50  0001 C CNN
F 3 "~" H 8250 1600 50  0001 C CNN
	1    8250 1600
	1    0    0    -1  
$EndComp
$Comp
L Device:LED D12
U 1 1 603B52C7
P 8250 2100
F 0 "D12" H 8243 2317 50  0000 C CNN
F 1 "LED" H 8243 2226 50  0000 C CNN
F 2 "LED_SMD:LED_0603_1608Metric" H 8250 2100 50  0001 C CNN
F 3 "~" H 8250 2100 50  0001 C CNN
	1    8250 2100
	0    -1   -1   0   
$EndComp
Wire Wire Line
	7400 950  7500 950 
Wire Wire Line
	7500 950  7750 950 
Wire Wire Line
	7750 950  7750 1100
Connection ~ 7500 950 
Wire Wire Line
	7400 1450 7500 1450
Wire Wire Line
	7500 1450 7750 1450
Wire Wire Line
	7750 1450 7750 1300
Connection ~ 7500 1450
Wire Wire Line
	8600 950  8500 950 
Wire Wire Line
	8500 950  8350 950 
Connection ~ 8500 950 
Wire Wire Line
	8600 1450 8500 1450
Wire Wire Line
	8500 1450 8350 1450
Connection ~ 8500 1450
$Comp
L power:GND #PWR0112
U 1 1 603B52DE
P 6950 1750
F 0 "#PWR0112" H 6950 1500 50  0001 C CNN
F 1 "GND" H 6955 1577 50  0000 C CNN
F 2 "" H 6950 1750 50  0001 C CNN
F 3 "" H 6950 1750 50  0001 C CNN
	1    6950 1750
	1    0    0    -1  
$EndComp
$Comp
L power:GND #PWR0113
U 1 1 603B52E4
P 7300 2200
F 0 "#PWR0113" H 7300 1950 50  0001 C CNN
F 1 "GND" H 7305 2027 50  0000 C CNN
F 2 "" H 7300 2200 50  0001 C CNN
F 3 "" H 7300 2200 50  0001 C CNN
	1    7300 2200
	1    0    0    -1  
$EndComp
Wire Wire Line
	7400 950  6950 950 
Connection ~ 7400 950 
Wire Wire Line
	7400 1450 7300 1450
Connection ~ 7400 1450
Wire Wire Line
	7300 1750 7300 1900
Wire Wire Line
	6950 1250 6950 1450
$Comp
L power:GND #PWR0114
U 1 1 603B52F0
P 8250 2250
F 0 "#PWR0114" H 8250 2000 50  0001 C CNN
F 1 "GND" H 8255 2077 50  0000 C CNN
F 2 "" H 8250 2250 50  0001 C CNN
F 3 "" H 8250 2250 50  0001 C CNN
	1    8250 2250
	1    0    0    -1  
$EndComp
Wire Wire Line
	8350 1450 8250 1450
Connection ~ 8350 1450
Wire Wire Line
	8250 1750 8250 1950
Wire Wire Line
	6300 950  6300 1200
Wire Wire Line
	8350 950  8350 1200
Connection ~ 6300 1200
Wire Wire Line
	6300 1200 6300 1450
Connection ~ 8350 1200
Wire Wire Line
	8350 1200 8350 1450
$Comp
L Device:R R13
U 1 1 603FDAF7
P 2500 3950
F 0 "R13" H 2570 3996 50  0000 L CNN
F 1 "R" H 2570 3905 50  0000 L CNN
F 2 "Resistor_SMD:R_0603_1608Metric" V 2430 3950 50  0001 C CNN
F 3 "~" H 2500 3950 50  0001 C CNN
	1    2500 3950
	1    0    0    -1  
$EndComp
$Comp
L Device:LED D13
U 1 1 603FDAFD
P 2500 4450
F 0 "D13" V 2539 4332 50  0000 R CNN
F 1 "LED" V 2448 4332 50  0000 R CNN
F 2 "LED_SMD:LED_0603_1608Metric" H 2500 4450 50  0001 C CNN
F 3 "~" H 2500 4450 50  0001 C CNN
	1    2500 4450
	0    -1   -1   0   
$EndComp
$Comp
L power:GND #PWR0115
U 1 1 603FDB03
P 2500 4600
F 0 "#PWR0115" H 2500 4350 50  0001 C CNN
F 1 "GND" H 2505 4427 50  0000 C CNN
F 2 "" H 2500 4600 50  0001 C CNN
F 3 "" H 2500 4600 50  0001 C CNN
	1    2500 4600
	1    0    0    -1  
$EndComp
Wire Wire Line
	2500 4100 2500 4300
$Comp
L power:+5V #PWR0116
U 1 1 60402269
P 2500 3800
F 0 "#PWR0116" H 2500 3650 50  0001 C CNN
F 1 "+5V" H 2515 3973 50  0000 C CNN
F 2 "" H 2500 3800 50  0001 C CNN
F 3 "" H 2500 3800 50  0001 C CNN
	1    2500 3800
	1    0    0    -1  
$EndComp
$EndSCHEMATC
