EESchema Schematic File Version 4
EELAYER 30 0
EELAYER END
$Descr A4 11693 8268
encoding utf-8
Sheet 1 1
Title ""
Date ""
Rev ""
Comp ""
Comment1 ""
Comment2 ""
Comment3 ""
Comment4 ""
$EndDescr
Text Notes 10550 7650 0    50   ~ 0
1
$Comp
L Connector_Generic:Conn_01x02 J2
U 1 1 600B24AE
P 650 1500
F 0 "J2" V 614 1312 50  0000 R CNN
F 1 "Conn_01x02" V 523 1312 50  0000 R CNN
F 2 "Connector_PinHeader_2.54mm:PinHeader_1x02_P2.54mm_Horizontal" H 650 1500 50  0001 C CNN
F 3 "~" H 650 1500 50  0001 C CNN
	1    650  1500
	-1   0    0    1   
$EndComp
$Comp
L Connector_Generic:Conn_01x02 J9
U 1 1 600B28B8
P 3700 1100
F 0 "J9" V 3664 912 50  0000 R CNN
F 1 "Conn_01x02" V 3573 912 50  0000 R CNN
F 2 "Connector_PinSocket_2.54mm:PinSocket_1x02_P2.54mm_Horizontal" H 3700 1100 50  0001 C CNN
F 3 "~" H 3700 1100 50  0001 C CNN
	1    3700 1100
	0    -1   -1   0   
$EndComp
$Comp
L power:GND #PWR03
U 1 1 600B36C0
P 850 1500
F 0 "#PWR03" H 850 1250 50  0001 C CNN
F 1 "GND" H 855 1327 50  0000 C CNN
F 2 "" H 850 1500 50  0001 C CNN
F 3 "" H 850 1500 50  0001 C CNN
	1    850  1500
	0    -1   -1   0   
$EndComp
$Comp
L power:GND #PWR017
U 1 1 600BDEB6
P 3700 1300
F 0 "#PWR017" H 3700 1050 50  0001 C CNN
F 1 "GND" H 3705 1127 50  0000 C CNN
F 2 "" H 3700 1300 50  0001 C CNN
F 3 "" H 3700 1300 50  0001 C CNN
	1    3700 1300
	1    0    0    -1  
$EndComp
$Comp
L power:+5V #PWR02
U 1 1 600BE4B7
P 850 1150
F 0 "#PWR02" H 850 1000 50  0001 C CNN
F 1 "+5V" H 865 1323 50  0000 C CNN
F 2 "" H 850 1150 50  0001 C CNN
F 3 "" H 850 1150 50  0001 C CNN
	1    850  1150
	0    -1   -1   0   
$EndComp
$Comp
L power:+5V #PWR018
U 1 1 600BEB4D
P 4000 1300
F 0 "#PWR018" H 4000 1150 50  0001 C CNN
F 1 "+5V" H 4015 1473 50  0000 C CNN
F 2 "" H 4000 1300 50  0001 C CNN
F 3 "" H 4000 1300 50  0001 C CNN
	1    4000 1300
	1    0    0    -1  
$EndComp
$Comp
L power:GND #PWR06
U 1 1 600BEF06
P 1250 2050
F 0 "#PWR06" H 1250 1800 50  0001 C CNN
F 1 "GND" H 1255 1877 50  0000 C CNN
F 2 "" H 1250 2050 50  0001 C CNN
F 3 "" H 1250 2050 50  0001 C CNN
	1    1250 2050
	1    0    0    -1  
$EndComp
$Comp
L Connector_Generic:Conn_01x02 J4
U 1 1 600CF8BC
P 1050 3000
F 0 "J4" V 1014 2812 50  0000 R CNN
F 1 "Conn_01x02" V 923 2812 50  0000 R CNN
F 2 "Connector_PinHeader_2.54mm:PinHeader_1x02_P2.54mm_Horizontal" H 1050 3000 50  0001 C CNN
F 3 "~" H 1050 3000 50  0001 C CNN
	1    1050 3000
	0    -1   -1   0   
$EndComp
$Comp
L power:GND #PWR05
U 1 1 600CF8C2
P 1050 3200
F 0 "#PWR05" H 1050 2950 50  0001 C CNN
F 1 "GND" H 1055 3027 50  0000 C CNN
F 2 "" H 1050 3200 50  0001 C CNN
F 3 "" H 1050 3200 50  0001 C CNN
	1    1050 3200
	1    0    0    -1  
$EndComp
$Comp
L power:+5V #PWR08
U 1 1 600CF8C8
P 1400 3200
F 0 "#PWR08" H 1400 3050 50  0001 C CNN
F 1 "+5V" H 1415 3373 50  0000 C CNN
F 2 "" H 1400 3200 50  0001 C CNN
F 3 "" H 1400 3200 50  0001 C CNN
	1    1400 3200
	1    0    0    -1  
$EndComp
$Comp
L Connector_Generic:Conn_01x02 J6
U 1 1 600D11E9
P 2350 3050
F 0 "J6" V 2314 2862 50  0000 R CNN
F 1 "Conn_01x02" V 2223 2862 50  0000 R CNN
F 2 "Connector_PinSocket_2.54mm:PinSocket_1x02_P2.54mm_Horizontal" H 2350 3050 50  0001 C CNN
F 3 "~" H 2350 3050 50  0001 C CNN
	1    2350 3050
	0    -1   -1   0   
$EndComp
$Comp
L power:GND #PWR011
U 1 1 600D11EF
P 2350 3250
F 0 "#PWR011" H 2350 3000 50  0001 C CNN
F 1 "GND" H 2355 3077 50  0000 C CNN
F 2 "" H 2350 3250 50  0001 C CNN
F 3 "" H 2350 3250 50  0001 C CNN
	1    2350 3250
	1    0    0    -1  
$EndComp
$Comp
L power:+5V #PWR012
U 1 1 600D11F5
P 2650 3250
F 0 "#PWR012" H 2650 3100 50  0001 C CNN
F 1 "+5V" H 2665 3423 50  0000 C CNN
F 2 "" H 2650 3250 50  0001 C CNN
F 3 "" H 2650 3250 50  0001 C CNN
	1    2650 3250
	1    0    0    -1  
$EndComp
Wire Wire Line
	850  1400 850  1150
Wire Wire Line
	3800 1300 4000 1300
Wire Wire Line
	1150 3200 1400 3200
Wire Wire Line
	2450 3250 2650 3250
$Comp
L Connector_Generic:Conn_01x02 J8
U 1 1 600DBF2F
P 3150 2750
F 0 "J8" V 3114 2562 50  0000 R CNN
F 1 "Conn_01x02" V 3023 2562 50  0000 R CNN
F 2 "Connector_PinHeader_2.54mm:PinHeader_1x02_P2.54mm_Horizontal" H 3150 2750 50  0001 C CNN
F 3 "~" H 3150 2750 50  0001 C CNN
	1    3150 2750
	-1   0    0    1   
$EndComp
$Comp
L power:GND #PWR016
U 1 1 600DBF35
P 3350 2750
F 0 "#PWR016" H 3350 2500 50  0001 C CNN
F 1 "GND" H 3355 2577 50  0000 C CNN
F 2 "" H 3350 2750 50  0001 C CNN
F 3 "" H 3350 2750 50  0001 C CNN
	1    3350 2750
	0    -1   -1   0   
$EndComp
$Comp
L power:+5V #PWR015
U 1 1 600DBF3B
P 3350 2400
F 0 "#PWR015" H 3350 2250 50  0001 C CNN
F 1 "+5V" H 3365 2573 50  0000 C CNN
F 2 "" H 3350 2400 50  0001 C CNN
F 3 "" H 3350 2400 50  0001 C CNN
	1    3350 2400
	0    -1   -1   0   
$EndComp
Wire Wire Line
	3350 2650 3350 2400
$Comp
L Connector_Generic:Conn_01x02 J7
U 1 1 600DC693
P 3050 900
F 0 "J7" V 3014 712 50  0000 R CNN
F 1 "Conn_01x02" V 2923 712 50  0000 R CNN
F 2 "Connector_PinHeader_2.54mm:PinHeader_1x02_P2.54mm_Horizontal" H 3050 900 50  0001 C CNN
F 3 "~" H 3050 900 50  0001 C CNN
	1    3050 900 
	-1   0    0    1   
$EndComp
$Comp
L power:GND #PWR014
U 1 1 600DC699
P 3250 900
F 0 "#PWR014" H 3250 650 50  0001 C CNN
F 1 "GND" H 3255 727 50  0000 C CNN
F 2 "" H 3250 900 50  0001 C CNN
F 3 "" H 3250 900 50  0001 C CNN
	1    3250 900 
	0    -1   -1   0   
$EndComp
$Comp
L power:+5V #PWR013
U 1 1 600DC69F
P 3250 550
F 0 "#PWR013" H 3250 400 50  0001 C CNN
F 1 "+5V" H 3265 723 50  0000 C CNN
F 2 "" H 3250 550 50  0001 C CNN
F 3 "" H 3250 550 50  0001 C CNN
	1    3250 550 
	0    -1   -1   0   
$EndComp
Wire Wire Line
	3250 800  3250 550 
$Comp
L Connector_Generic:Conn_01x02 J5
U 1 1 600DF898
P 1350 700
F 0 "J5" V 1314 512 50  0000 R CNN
F 1 "Conn_01x02" V 1223 512 50  0000 R CNN
F 2 "Connector_PinSocket_2.54mm:PinSocket_1x02_P2.54mm_Horizontal" H 1350 700 50  0001 C CNN
F 3 "~" H 1350 700 50  0001 C CNN
	1    1350 700 
	0    -1   -1   0   
$EndComp
$Comp
L power:GND #PWR07
U 1 1 600DF89E
P 1350 900
F 0 "#PWR07" H 1350 650 50  0001 C CNN
F 1 "GND" H 1355 727 50  0000 C CNN
F 2 "" H 1350 900 50  0001 C CNN
F 3 "" H 1350 900 50  0001 C CNN
	1    1350 900 
	1    0    0    -1  
$EndComp
$Comp
L power:+5V #PWR09
U 1 1 600DF8A4
P 1650 900
F 0 "#PWR09" H 1650 750 50  0001 C CNN
F 1 "+5V" H 1665 1073 50  0000 C CNN
F 2 "" H 1650 900 50  0001 C CNN
F 3 "" H 1650 900 50  0001 C CNN
	1    1650 900 
	1    0    0    -1  
$EndComp
Wire Wire Line
	1450 900  1650 900 
$Comp
L Connector_Generic:Conn_01x02 J3
U 1 1 600E0122
P 700 2500
F 0 "J3" V 664 2312 50  0000 R CNN
F 1 "Conn_01x02" V 573 2312 50  0000 R CNN
F 2 "Connector_PinSocket_2.54mm:PinSocket_1x02_P2.54mm_Horizontal" H 700 2500 50  0001 C CNN
F 3 "~" H 700 2500 50  0001 C CNN
	1    700  2500
	0    -1   -1   0   
$EndComp
$Comp
L power:GND #PWR01
U 1 1 600E0128
P 700 2700
F 0 "#PWR01" H 700 2450 50  0001 C CNN
F 1 "GND" H 705 2527 50  0000 C CNN
F 2 "" H 700 2700 50  0001 C CNN
F 3 "" H 700 2700 50  0001 C CNN
	1    700  2700
	1    0    0    -1  
$EndComp
$Comp
L power:+5V #PWR04
U 1 1 600E012E
P 1000 2700
F 0 "#PWR04" H 1000 2550 50  0001 C CNN
F 1 "+5V" H 1015 2873 50  0000 C CNN
F 2 "" H 1000 2700 50  0001 C CNN
F 3 "" H 1000 2700 50  0001 C CNN
	1    1000 2700
	1    0    0    -1  
$EndComp
Wire Wire Line
	800  2700 1000 2700
Connection ~ 1950 1950
Wire Wire Line
	2150 1950 2150 1900
Wire Wire Line
	1950 1950 2150 1950
Wire Wire Line
	1950 1950 1950 2050
Connection ~ 1450 2050
Wire Wire Line
	1450 2050 1450 1950
Wire Wire Line
	1250 2050 1450 2050
$Comp
L power:+5V #PWR010
U 1 1 600BF4D8
P 2150 1900
F 0 "#PWR010" H 2150 1750 50  0001 C CNN
F 1 "+5V" H 2165 2073 50  0000 C CNN
F 2 "" H 2150 1900 50  0001 C CNN
F 3 "" H 2150 1900 50  0001 C CNN
	1    2150 1900
	1    0    0    -1  
$EndComp
$Comp
L Connector_Generic:Conn_02x02_Top_Bottom J1
U 1 1 600B315D
P 1650 1950
F 0 "J1" H 1700 2167 50  0000 C CNN
F 1 "Conn_02x02_Top_Bottom" H 1700 2076 50  0000 C CNN
F 2 "Connector_PinHeader_2.54mm:PinHeader_2x02_P2.54mm_Vertical" H 1650 1950 50  0001 C CNN
F 3 "~" H 1650 1950 50  0001 C CNN
	1    1650 1950
	1    0    0    -1  
$EndComp
$Comp
L Mechanical:MountingHole_Pad H1
U 1 1 601E2B02
P 4600 650
F 0 "H1" H 4700 699 50  0000 L CNN
F 1 "MountingHole_Pad" H 4700 608 50  0000 L CNN
F 2 "MountingHole:MountingHole_2.2mm_M2_Pad_TopBottom" H 4600 650 50  0001 C CNN
F 3 "~" H 4600 650 50  0001 C CNN
	1    4600 650 
	1    0    0    -1  
$EndComp
$Comp
L power:GND #PWR019
U 1 1 601E7108
P 4600 750
F 0 "#PWR019" H 4600 500 50  0001 C CNN
F 1 "GND" H 4605 577 50  0000 C CNN
F 2 "" H 4600 750 50  0001 C CNN
F 3 "" H 4600 750 50  0001 C CNN
	1    4600 750 
	1    0    0    -1  
$EndComp
$Comp
L Mechanical:MountingHole_Pad H2
U 1 1 601EEE6B
P 5050 600
F 0 "H2" H 5150 649 50  0000 L CNN
F 1 "MountingHole_Pad" H 5150 558 50  0000 L CNN
F 2 "MountingHole:MountingHole_2.2mm_M2_Pad_TopBottom" H 5050 600 50  0001 C CNN
F 3 "~" H 5050 600 50  0001 C CNN
	1    5050 600 
	1    0    0    -1  
$EndComp
$Comp
L power:GND #PWR020
U 1 1 601EEE71
P 5050 700
F 0 "#PWR020" H 5050 450 50  0001 C CNN
F 1 "GND" H 5055 527 50  0000 C CNN
F 2 "" H 5050 700 50  0001 C CNN
F 3 "" H 5050 700 50  0001 C CNN
	1    5050 700 
	1    0    0    -1  
$EndComp
$Comp
L Mechanical:MountingHole_Pad H3
U 1 1 601EF433
P 5350 650
F 0 "H3" H 5450 699 50  0000 L CNN
F 1 "MountingHole_Pad" H 5450 608 50  0000 L CNN
F 2 "MountingHole:MountingHole_2.2mm_M2_Pad_TopBottom" H 5350 650 50  0001 C CNN
F 3 "~" H 5350 650 50  0001 C CNN
	1    5350 650 
	1    0    0    -1  
$EndComp
$Comp
L power:GND #PWR021
U 1 1 601EF439
P 5350 750
F 0 "#PWR021" H 5350 500 50  0001 C CNN
F 1 "GND" H 5355 577 50  0000 C CNN
F 2 "" H 5350 750 50  0001 C CNN
F 3 "" H 5350 750 50  0001 C CNN
	1    5350 750 
	1    0    0    -1  
$EndComp
$Comp
L Mechanical:MountingHole_Pad H4
U 1 1 601EF983
P 5800 650
F 0 "H4" H 5900 699 50  0000 L CNN
F 1 "MountingHole_Pad" H 5900 608 50  0000 L CNN
F 2 "MountingHole:MountingHole_2.2mm_M2_Pad_TopBottom" H 5800 650 50  0001 C CNN
F 3 "~" H 5800 650 50  0001 C CNN
	1    5800 650 
	1    0    0    -1  
$EndComp
$Comp
L power:GND #PWR022
U 1 1 601EF989
P 5800 750
F 0 "#PWR022" H 5800 500 50  0001 C CNN
F 1 "GND" H 5805 577 50  0000 C CNN
F 2 "" H 5800 750 50  0001 C CNN
F 3 "" H 5800 750 50  0001 C CNN
	1    5800 750 
	1    0    0    -1  
$EndComp
$EndSCHEMATC
